Library\Bee\artifacts\mvdfrm\Unity.2D.Animation.Editor.ref.dll_E5224B7F0A871AB1.mvfrm
Library\Bee\artifacts\mvdfrm\Unity.2D.Animation.Runtime.ref.dll_7A5B4E3637A927EA.mvfrm
Library\Bee\artifacts\mvdfrm\Unity.2D.Aseprite.Common.ref.dll_59ED2BA84E96F690.mvfrm
Library\Bee\artifacts\mvdfrm\Unity.2D.Aseprite.Editor.ref.dll_56D623A34FBE2112.mvfrm
Library\Bee\artifacts\mvdfrm\Unity.2D.Common.Editor.ref.dll_28DF0342B1EBDA9C.mvfrm
Library\Bee\artifacts\mvdfrm\Unity.2D.Common.Path.Editor.ref.dll_4D60528CC78D55ED.mvfrm
Library\Bee\artifacts\mvdfrm\Unity.2D.Common.Runtime.ref.dll_ED6C3D43989857CF.mvfrm
Library\Bee\artifacts\mvdfrm\Unity.2D.IK.Editor.ref.dll_1615F38C69C76935.mvfrm
Library\Bee\artifacts\mvdfrm\Unity.2D.IK.Runtime.ref.dll_AFE3DB2244A55F26.mvfrm
Library\Bee\artifacts\mvdfrm\Unity.2D.PixelPerfect.Editor.ref.dll_77CC498456856650.mvfrm
Library\Bee\artifacts\mvdfrm\Unity.2D.PixelPerfect.ref.dll_81141996E1438371.mvfrm
Library\Bee\artifacts\mvdfrm\Unity.2D.Psdimporter.Editor.ref.dll_03AE4E6A0170E102.mvfrm
Library\Bee\artifacts\mvdfrm\Unity.2D.Sprite.Editor.ref.dll_493FFFF13AE54DA2.mvfrm
Library\Bee\artifacts\mvdfrm\Unity.2D.SpriteShape.Editor.ref.dll_67324B073E3D6D19.mvfrm
Library\Bee\artifacts\mvdfrm\Unity.2D.SpriteShape.Runtime.ref.dll_E4A047AB35D25B02.mvfrm
Library\Bee\artifacts\mvdfrm\Unity.2D.Tilemap.Editor.ref.dll_B95EBC329496BC77.mvfrm
Library\Bee\artifacts\mvdfrm\Unity.2D.Tilemap.Extras.Editor.ref.dll_7210FA48E5F13324.mvfrm
Library\Bee\artifacts\mvdfrm\Unity.2D.Tilemap.Extras.ref.dll_AD10E379F36BF95D.mvfrm
Library\Bee\artifacts\mvdfrm\Unity.AdaptivePerformance.Editor.ref.dll_CAB61235C977AC39.mvfrm
Library\Bee\artifacts\mvdfrm\Unity.AdaptivePerformance.Profiler.Editor.ref.dll_960CC9837526936C.mvfrm
Library\Bee\artifacts\mvdfrm\Unity.AdaptivePerformance.Simulator.Editor.ref.dll_E1C1C14924571B23.mvfrm
Library\Bee\artifacts\mvdfrm\Unity.AdaptivePerformance.Simulator.Extension.ref.dll_16985593077EEFAF.mvfrm
Library\Bee\artifacts\mvdfrm\Unity.AdaptivePerformance.UI.Editor.ref.dll_727D711C61C7AA31.mvfrm
Library\Bee\artifacts\mvdfrm\Unity.AdaptivePerformance.ref.dll_3460D78B3CD3B2F8.mvfrm
Library\Bee\artifacts\mvdfrm\Unity.Burst.Editor.ref.dll_030BCB777AA5BDC3.mvfrm
Library\Bee\artifacts\mvdfrm\Unity.Burst.ref.dll_75A67EE1951F90CE.mvfrm
Library\Bee\artifacts\mvdfrm\Unity.Collections.ref.dll_17CA8F61EA9E7873.mvfrm
Library\Bee\artifacts\mvdfrm\Unity.InternalAPIEditorBridge.001.ref.dll_5869ED23107F86A4.mvfrm
Library\Bee\artifacts\mvdfrm\Unity.InternalAPIEditorBridge.005.ref.dll_3BEB9E8BDB75B128.mvfrm
Library\Bee\artifacts\mvdfrm\Unity.InternalAPIEngineBridge.001.ref.dll_4AE4A5CD758E6DE9.mvfrm
Library\Bee\artifacts\mvdfrm\Unity.Mathematics.Editor.ref.dll_64944B6DD477E1FD.mvfrm
Library\Bee\artifacts\mvdfrm\Unity.Mathematics.ref.dll_9B4CF66C9079F0F4.mvfrm
Library\Bee\artifacts\mvdfrm\Unity.Mobile.AndroidLogcat.Editor.ref.dll_F0D10029881F4094.mvfrm
Library\Bee\artifacts\mvdfrm\Unity.Notifications.Android.ref.dll_6C9E79B87A11AA97.mvfrm
Library\Bee\artifacts\mvdfrm\Unity.Notifications.ref.dll_E80D20C6B5C3BB26.mvfrm
Library\Bee\artifacts\mvdfrm\Unity.Notifications.iOS.ref.dll_6E05C9845B577095.mvfrm
Library\Bee\artifacts\mvdfrm\Unity.PlasticSCM.Editor.ref.dll_9B6D9940AFF80C3C.mvfrm
Library\Bee\artifacts\mvdfrm\Unity.Profiling.Core.ref.dll_29C6C54F498BDD8F.mvfrm
Library\Bee\artifacts\mvdfrm\Unity.Rider.Editor.ref.dll_BB682F4C994978A9.mvfrm
Library\Bee\artifacts\mvdfrm\Unity.Subsystem.Registration.ref.dll_973E1479A131D130.mvfrm
Library\Bee\artifacts\mvdfrm\Unity.TextMeshPro.Editor.ref.dll_E01181B6C057CE40.mvfrm
Library\Bee\artifacts\mvdfrm\Unity.TextMeshPro.ref.dll_3701448EC0EF5C81.mvfrm
Library\Bee\artifacts\mvdfrm\Unity.Timeline.Editor.ref.dll_05875DFCD7CD8938.mvfrm
Library\Bee\artifacts\mvdfrm\Unity.Timeline.ref.dll_D34675E5055C5209.mvfrm
Library\Bee\artifacts\mvdfrm\Unity.VSCode.Editor.ref.dll_CF19E61DDF16767F.mvfrm
Library\Bee\artifacts\mvdfrm\Unity.VisualScripting.Core.Editor.ref.dll_83BC621B72BABDA3.mvfrm
Library\Bee\artifacts\mvdfrm\Unity.VisualScripting.Core.ref.dll_EA71DBF61AC412EE.mvfrm
Library\Bee\artifacts\mvdfrm\Unity.VisualScripting.Flow.Editor.ref.dll_00ED4ACA819948E4.mvfrm
Library\Bee\artifacts\mvdfrm\Unity.VisualScripting.Flow.ref.dll_3182BC4C9CCD879D.mvfrm
Library\Bee\artifacts\mvdfrm\Unity.VisualScripting.SettingsProvider.Editor.ref.dll_95D4598D0844CFCE.mvfrm
Library\Bee\artifacts\mvdfrm\Unity.VisualScripting.Shared.Editor.ref.dll_D971BCE13ACE101D.mvfrm
Library\Bee\artifacts\mvdfrm\Unity.VisualScripting.State.Editor.ref.dll_E0FF03DA7F2CFA69.mvfrm
Library\Bee\artifacts\mvdfrm\Unity.VisualScripting.State.ref.dll_255AEA40301341C8.mvfrm
Library\Bee\artifacts\mvdfrm\Unity.VisualStudio.Editor.ref.dll_7E7DD2F3C2805153.mvfrm
Library\Bee\artifacts\mvdfrm\UnityEditor.TestRunner.ref.dll_84C42244F0436F2D.mvfrm
Library\Bee\artifacts\mvdfrm\UnityEditor.UI.ref.dll_BDC26BE24454476F.mvfrm
Library\Bee\artifacts\mvdfrm\UnityEngine.TestRunner.ref.dll_50E26CF31C06CD18.mvfrm
Library\Bee\artifacts\mvdfrm\UnityEngine.UI.ref.dll_7A28423D4A766FDA.mvfrm
Library\Bee\artifacts\mvdfrm\UnityEditor.Graphs.dll_6110DDF626FF6A56.mvfrm
Library\Bee\artifacts\mvdfrm\UnityEditor.CoreModule.dll_FEC7847E2DA60424.mvfrm
Library\Bee\artifacts\mvdfrm\UnityEditor.DeviceSimulatorModule.dll_FFA3F399AADDFEDD.mvfrm
Library\Bee\artifacts\mvdfrm\UnityEditor.DiagnosticsModule.dll_1B38ADD38B5BB1EB.mvfrm
Library\Bee\artifacts\mvdfrm\UnityEditor.dll_8772851DB53DEC31.mvfrm
Library\Bee\artifacts\mvdfrm\UnityEditor.EditorToolbarModule.dll_AA8556FBD53D730D.mvfrm
Library\Bee\artifacts\mvdfrm\UnityEditor.GraphViewModule.dll_5FDE6C3CE4C14662.mvfrm
Library\Bee\artifacts\mvdfrm\UnityEditor.PresetsUIModule.dll_1B44A51EE7199E67.mvfrm
Library\Bee\artifacts\mvdfrm\UnityEditor.QuickSearchModule.dll_A6482EE0E432AE44.mvfrm
Library\Bee\artifacts\mvdfrm\UnityEditor.SceneTemplateModule.dll_CE24C7B9D42A1D45.mvfrm
Library\Bee\artifacts\mvdfrm\UnityEditor.SceneViewModule.dll_9E8E4F44D9E41370.mvfrm
Library\Bee\artifacts\mvdfrm\UnityEditor.TextCoreFontEngineModule.dll_31DDE8ED6A3BDD22.mvfrm
Library\Bee\artifacts\mvdfrm\UnityEditor.TextCoreTextEngineModule.dll_79C61F5EF9BF9640.mvfrm
Library\Bee\artifacts\mvdfrm\UnityEditor.UIBuilderModule.dll_B46719595779BF96.mvfrm
Library\Bee\artifacts\mvdfrm\UnityEditor.UIElementsModule.dll_E5ABEBF0D45508E0.mvfrm
Library\Bee\artifacts\mvdfrm\UnityEditor.UIElementsSamplesModule.dll_50E717B71774468D.mvfrm
Library\Bee\artifacts\mvdfrm\UnityEditor.UnityConnectModule.dll_48A4B46D3668C4DA.mvfrm
Library\Bee\artifacts\mvdfrm\UnityEngine.AccessibilityModule.dll_00CA3350D4A044E2.mvfrm
Library\Bee\artifacts\mvdfrm\UnityEngine.AIModule.dll_28862F71EC72B5F8.mvfrm
Library\Bee\artifacts\mvdfrm\UnityEngine.AndroidJNIModule.dll_63F4D4C41D7477B6.mvfrm
Library\Bee\artifacts\mvdfrm\UnityEngine.AnimationModule.dll_2E63E865BF1E1B08.mvfrm
Library\Bee\artifacts\mvdfrm\UnityEngine.ARModule.dll_E1F8F475499014C1.mvfrm
Library\Bee\artifacts\mvdfrm\UnityEngine.AssetBundleModule.dll_EA3161D246996336.mvfrm
Library\Bee\artifacts\mvdfrm\UnityEngine.AudioModule.dll_76BE2308962D79FA.mvfrm
Library\Bee\artifacts\mvdfrm\UnityEngine.ClothModule.dll_DDA68003704A58DE.mvfrm
Library\Bee\artifacts\mvdfrm\UnityEngine.ClusterInputModule.dll_C8412982E7F097A0.mvfrm
Library\Bee\artifacts\mvdfrm\UnityEngine.ClusterRendererModule.dll_0550B60B1A990C61.mvfrm
Library\Bee\artifacts\mvdfrm\UnityEngine.ContentLoadModule.dll_8347BB13151C0B23.mvfrm
Library\Bee\artifacts\mvdfrm\UnityEngine.CoreModule.dll_21E857D0D5AB6F4F.mvfrm
Library\Bee\artifacts\mvdfrm\UnityEngine.CrashReportingModule.dll_CEDE0FC7C41F2A47.mvfrm
Library\Bee\artifacts\mvdfrm\UnityEngine.DirectorModule.dll_8E8B02ED9CC1992C.mvfrm
Library\Bee\artifacts\mvdfrm\UnityEngine.dll_BA16CBF613B17916.mvfrm
Library\Bee\artifacts\mvdfrm\UnityEngine.DSPGraphModule.dll_93DC64570F226A4D.mvfrm
Library\Bee\artifacts\mvdfrm\UnityEngine.GameCenterModule.dll_8E421EDEE3B568A7.mvfrm
Library\Bee\artifacts\mvdfrm\UnityEngine.GIModule.dll_C0C2787F88219E12.mvfrm
Library\Bee\artifacts\mvdfrm\UnityEngine.GridModule.dll_FF5973BEEE000546.mvfrm
Library\Bee\artifacts\mvdfrm\UnityEngine.HotReloadModule.dll_AFACA66B9A51368A.mvfrm
Library\Bee\artifacts\mvdfrm\UnityEngine.ImageConversionModule.dll_7142B3BB9CBDC455.mvfrm
Library\Bee\artifacts\mvdfrm\UnityEngine.IMGUIModule.dll_AF1DC26F5C5F0DDB.mvfrm
Library\Bee\artifacts\mvdfrm\UnityEngine.InputLegacyModule.dll_7B767CF0DE8B1927.mvfrm
Library\Bee\artifacts\mvdfrm\UnityEngine.InputModule.dll_DD33EAB90C659E9E.mvfrm
Library\Bee\artifacts\mvdfrm\UnityEngine.JSONSerializeModule.dll_60E1BC8CD3DBA56C.mvfrm
Library\Bee\artifacts\mvdfrm\UnityEngine.LocalizationModule.dll_068DF3D57F6C8A99.mvfrm
Library\Bee\artifacts\mvdfrm\UnityEngine.NVIDIAModule.dll_38D15D7EE9CB339B.mvfrm
Library\Bee\artifacts\mvdfrm\UnityEngine.ParticleSystemModule.dll_21F059143230B5D5.mvfrm
Library\Bee\artifacts\mvdfrm\UnityEngine.PerformanceReportingModule.dll_11A157A6E858130E.mvfrm
Library\Bee\artifacts\mvdfrm\UnityEngine.Physics2DModule.dll_7B09D856601B129D.mvfrm
Library\Bee\artifacts\mvdfrm\UnityEngine.PhysicsModule.dll_DE3F7CB9A82F880B.mvfrm
Library\Bee\artifacts\mvdfrm\UnityEngine.ProfilerModule.dll_C0D13C24361B2039.mvfrm
Library\Bee\artifacts\mvdfrm\UnityEngine.PropertiesModule.dll_BB7D5E1D56A0CCE3.mvfrm
Library\Bee\artifacts\mvdfrm\UnityEngine.RuntimeInitializeOnLoadManagerInitializerModule.dll_C55045BFE8AD3D66.mvfrm
Library\Bee\artifacts\mvdfrm\UnityEngine.ScreenCaptureModule.dll_7AC96A11E847D1CE.mvfrm
Library\Bee\artifacts\mvdfrm\UnityEngine.SharedInternalsModule.dll_F553F29113EBBFA5.mvfrm
Library\Bee\artifacts\mvdfrm\UnityEngine.SpriteMaskModule.dll_776E916F0524FE21.mvfrm
Library\Bee\artifacts\mvdfrm\UnityEngine.SpriteShapeModule.dll_03928F2CFC3B9B40.mvfrm
Library\Bee\artifacts\mvdfrm\UnityEngine.StreamingModule.dll_E2F8D5B60EA5D246.mvfrm
Library\Bee\artifacts\mvdfrm\UnityEngine.SubstanceModule.dll_BFA3E9FF59F8D054.mvfrm
Library\Bee\artifacts\mvdfrm\UnityEngine.SubsystemsModule.dll_E21BF7D0D36CE634.mvfrm
Library\Bee\artifacts\mvdfrm\UnityEngine.TerrainModule.dll_F885F8287DEDD0F9.mvfrm
Library\Bee\artifacts\mvdfrm\UnityEngine.TerrainPhysicsModule.dll_226B01E74B73B062.mvfrm
Library\Bee\artifacts\mvdfrm\UnityEngine.TextCoreFontEngineModule.dll_B03D64407D399BED.mvfrm
Library\Bee\artifacts\mvdfrm\UnityEngine.TextCoreTextEngineModule.dll_F8259AB20CBD550B.mvfrm
Library\Bee\artifacts\mvdfrm\UnityEngine.TextRenderingModule.dll_A408DC1C9F7F51C3.mvfrm
Library\Bee\artifacts\mvdfrm\UnityEngine.TilemapModule.dll_97825FA995AAB202.mvfrm
Library\Bee\artifacts\mvdfrm\UnityEngine.TLSModule.dll_75F4165D73A45E1F.mvfrm
Library\Bee\artifacts\mvdfrm\UnityEngine.UIElementsModule.dll_E65A5938D699222B.mvfrm
Library\Bee\artifacts\mvdfrm\UnityEngine.UIModule.dll_23F9CD9F48B9BBA4.mvfrm
Library\Bee\artifacts\mvdfrm\UnityEngine.UmbraModule.dll_F192CF212354256D.mvfrm
Library\Bee\artifacts\mvdfrm\UnityEngine.UnityAnalyticsCommonModule.dll_ACE014EB0240B16C.mvfrm
Library\Bee\artifacts\mvdfrm\UnityEngine.UnityAnalyticsModule.dll_418FC9DDDE5807D1.mvfrm
Library\Bee\artifacts\mvdfrm\UnityEngine.UnityConnectModule.dll_3604387C30F0C585.mvfrm
Library\Bee\artifacts\mvdfrm\UnityEngine.UnityCurlModule.dll_618089972F320CF5.mvfrm
Library\Bee\artifacts\mvdfrm\UnityEngine.UnityTestProtocolModule.dll_0CA9CDA9716F9BE3.mvfrm
Library\Bee\artifacts\mvdfrm\UnityEngine.UnityWebRequestAssetBundleModule.dll_232281A8C9441F62.mvfrm
Library\Bee\artifacts\mvdfrm\UnityEngine.UnityWebRequestAudioModule.dll_899DAB856EC2DDA6.mvfrm
Library\Bee\artifacts\mvdfrm\UnityEngine.UnityWebRequestModule.dll_82E1BB65A7B25ED4.mvfrm
Library\Bee\artifacts\mvdfrm\UnityEngine.UnityWebRequestTextureModule.dll_96AAAF29EC58443B.mvfrm
Library\Bee\artifacts\mvdfrm\UnityEngine.UnityWebRequestWWWModule.dll_C2E7E00DFC7D1177.mvfrm
Library\Bee\artifacts\mvdfrm\UnityEngine.VehiclesModule.dll_064DFC6D16EB68C7.mvfrm
Library\Bee\artifacts\mvdfrm\UnityEngine.VFXModule.dll_F6D2AECC4A11C78C.mvfrm
Library\Bee\artifacts\mvdfrm\UnityEngine.VideoModule.dll_9BC7A77358BF959F.mvfrm
Library\Bee\artifacts\mvdfrm\UnityEngine.VirtualTexturingModule.dll_AD95F4A9198A9D2D.mvfrm
Library\Bee\artifacts\mvdfrm\UnityEngine.VRModule.dll_76CBF424EA74411C.mvfrm
Library\Bee\artifacts\mvdfrm\UnityEngine.WindModule.dll_983732F966E1EDB8.mvfrm
Library\Bee\artifacts\mvdfrm\UnityEngine.XRModule.dll_A98AB72973AE8E7A.mvfrm
Library\Bee\artifacts\mvdfrm\UnityEngine.WebGLModule.dll_682C96AFB5319433.mvfrm
Library\Bee\artifacts\mvdfrm\UnityEditor.WebGL.Extensions.dll_4B32BD19A9A356CC.mvfrm
Library\Bee\artifacts\mvdfrm\UnityEditor.WindowsStandalone.Extensions.dll_6F9B81A20152B3BC.mvfrm
Library\Bee\artifacts\mvdfrm\Unity.Plastic.Antlr3.Runtime.dll_DBC5D081C4D6AF26.mvfrm
Library\Bee\artifacts\mvdfrm\Unity.Plastic.Newtonsoft.Json.dll_B06B77423C8110AF.mvfrm
Library\Bee\artifacts\mvdfrm\Unity.Collections.LowLevel.ILSupport.dll_2E40CE80E145E521.mvfrm
Library\Bee\artifacts\mvdfrm\Unity.VisualScripting.IonicZip.dll_BE5647D59BA90757.mvfrm
Library\Bee\artifacts\mvdfrm\Unity.VisualScripting.YamlDotNet.dll_73B4528AAC4BDD55.mvfrm
Library\Bee\artifacts\mvdfrm\Unity.VisualScripting.TextureAssets.dll_0AD27BDE6D193B4D.mvfrm
Library\Bee\artifacts\mvdfrm\Unity.VisualScripting.Antlr3.Runtime.dll_2521796BDD14ED74.mvfrm